1 1 1
1 2 2
1 3 8
1 4 8
1 5 8
1 6 9
1 7 17
1 8 17
1 9 20
1 10 20
1 11 20
1 12 20
1 13 20
1 14 20
1 15 20
1 16 20
1 17 20
1 18 21
1 19 21
1 20 21
1 21 21
1 22 21
1 23 21
1 24 21
1 25 24
1 26 24
1 27 112
1 28 112
1 29 112
1 30 112
1 31 112
1 32 112
1 33 112
1 34 112
1 35 112
1 36 112
1 37 112
1 38 112
671461 983557 525
372988 914192 525
533344 857711 525
514057 612400 452
821464 986212 525
629285 15042 509
372329 96349 443
493907 444408 444
130136 822880 509
36089 854919 525
794126 813578 468
270803 778990 509
212504 249562 443
127758 913046 525
553062 69490 470
655632 130467 509
813386 155397 509
436426 639932 509
355565 43134 443
637850 380429 509
996947 608846 525
524975 78394 470
303399 26344 443
732785 980735 525
185383 755322 509
155524 794757 509
280003 706999 509
964066 66404 525
501224 257005 449
832806 106457 509
313823 948904 525
80772 193565 383
963072 842396 507
725374 364437 509
960357 318717 525
991708 773361 525
659470 751370 504
572490 567967 377
781135 131263 509
547196 410296 470
395035 475406 449
318749 763922 509
868127 154281 525
29501 587838 470
375999 228512 443
105456 94255 341
341351 22492 443
374457 70940 443
364093 456710 449
163410 903261 525
913557 509150 525
340714 332814 366
879348 109541 525
783069 39007 509
896480 270858 525
390848 434762 449
963880 581861 525
510130 959188 525
917352 825536 525
368089 697471 509
58546 293097 443
501221 287754 449
233927 800668 509
24342 590390 470
730991 284218 509
488392 350853 449
728110 918532 525
736818 167565 509
193719 241724 443
624913 827449 509
389032 545543 470
356615 366500 410
360432 759921 509
904495 155597 525
654355 535621 509
695447 285804 509
480558 493870 426
919432 903397 476
582957 907516 525
896191 107564 525
558702 141189 470
69532 640168 509
415319 573237 470
958712 907459 507
897839 325794 525
12628 70801 340
824729 696503 504
687296 363625 509
151787 5427 375
780368 219375 509
564850 544417 452
1770 972139 525
264002 524712 470
111968 933380 525
199877 182481 360
583007 737056 509
355237 544052 470
993507 942521 458
405579 796981 509
952251 289269 525
614758 264306 470
320528 635944 509
447152 112697 449
672363 794057 504
676915 717972 504
491460 124410 449
221810 688180 509
41995 536531 470
125401 599761 470
537684 995298 525
234374 38365 443
392945 504998 449
170181 532414 470
645742 768079 504
948051 701556 525
651840 315896 509
400199 821838 509
432424 9150 449
410132 859971 525
23544 547862 470
117134 690461 509
182106 431871 449
839232 367077 525
737534 737078 380
706247 524158 509
715086 7892 509
191370 786201 509
869131 682817 525
577913 882167 525
715528 915053 525
651448 541324 509
530696 785939 509
496882 302431 449
293548 487270 449
102238 422981 449
251004 124108 443
353932 214619 443
720666 678859 504
513638 447751 470
61629 146478 375
998917 31502 525
676131 896937 525
790056 680112 504
575066 156736 470
939753 264763 525
362541 466121 449
924014 121396 525
386187 65969 443
435818 113097 449
292268 841017 525
